…
  ``` r
  library(tidyr)
  tidy_eagles_data <- eagles_data |>
    pivot_longer(cols = -year, 
                 names_to = "region", 
                 values_to = "quantity")

  # Rename the columns
  colnames(tidy_eagles_data) <- c("Year", "Region", "Nests")

  # Print data frame
  print(tidy_eagles_data)
  ```

      # A tibble: 54 × 3
          Year Region    Nests
         <int> <chr>     <int>
       1  2006 pacific    1636
       2  2006 southwest    68
       3  2006 rocky.mtn   241
       4  2007 pacific    2474
       5  2007 southwest   148
       6  2007 rocky.mtn   277
       7  2008 pacific    3772
       8  2008 southwest   131
       9  2008 rocky.mtn   384
      10  2009 pacific    3179
      # ℹ 44 more rows
…
